{
    "id": "org.kde.krfb",
    "branch": "master",
    "runtime": "org.kde.Platform",
    "runtime-version": "5.12",
    "sdk": "org.kde.Sdk",
    "command": "krfb",
    "tags": ["nightly"],
    "desktop-file-name-suffix": " (Nightly)",
    "finish-args": ["--share=ipc", "--socket=x11", "--socket=wayland" ],

    "modules": [
        {
            "name": "libgpg-error",
            "sources": [ { "type": "archive", "url": "http://mirrors.dotsrc.org/gnupg/libgpg-error/libgpg-error-1.31.tar.bz2", "sha256": "40d0a823c9329478063903192a1f82496083b277265904878f4bc09e0db7a4ef" } ],
            "cleanup": [ "/lib/libgpg-error.la" ],
            "modules": [
                {
                    "name": "gettext",
                    "sources": [{
                        "type": "archive",
                        "url": "https://ftp.gnu.org/pub/gnu/gettext/gettext-0.19.8.tar.gz",
                        "sha256": "3da4f6bd79685648ecf46dab51d66fcdddc156f41ed07e580a696a38ac61d48f"
                    }]
                }
            ]
        },
        {
            "name": "libgcrypt",
            "sources": [
                {
                    "type": "archive",
                    "url": "https://www.gnupg.org/ftp/gcrypt/libgcrypt/libgcrypt-1.8.4.tar.bz2",
                    "sha256": "f638143a0672628fde0cad745e9b14deb85dffb175709cacc1f4fe24b93f2227"
                }
            ]
        },
        {
            "name": "LibVNCServer",
            "sources": [
                {
                    "type": "archive",
                    "url": "https://github.com/LibVNC/libvncserver/archive/LibVNCServer-0.9.11.tar.gz",
                    "sha256": "193d630372722a532136fd25c5326b2ca1a636cbb8bf9bb115ef869c804d2894"
                }
            ]
        },
        {
            "name": "icon",
            "buildsystem": "simple",
            "build-commands": [
                "mkdir -p /app/share/icons/hicolor/32x32/apps/",
                "install -D /usr/share/icons/breeze/apps/48/krfb.svg /app/share/icons/hicolor/32x32/apps/"
            ]
        },
        {
            "name": "krfb",
            "buildsystem": "cmake-ninja",
            "config-opts": ["-DCMAKE_BUILD_TYPE=debug", "-DPLASMA_ENABLED=OFF"],
            "sources": [
                { "type": "git", "url": "git://anongit.kde.org/krfb.git" }
            ]
        }
    ]
}
