{
    "id": "org.kde.kopete",
    "branch": "master",
    "runtime": "org.kde.Platform",
    "runtime-version": "5.12",
    "sdk": "org.kde.Sdk",
    "command": "kopete",
    "tags": ["nightly"],
    "desktop-file-name-suffix": " (Nightly)",
    "finish-args": ["--share=ipc", "--socket=x11", "--socket=wayland" ],

    "modules": [
        "boost.json",
        "gpgme.json",
        {
            "config-opts": [ "-DENABLE_TESTING=OFF" ],
            "name": "kdelibs4support",
            "buildsystem": "cmake-ninja",
            "sources": [ { "type": "git", "url": "git://anongit.kde.org/kdelibs4support.git", "branch": "v5.60.0" } ]
        },
        {
            "config-opts": [ "-DENABLE_TESTING=OFF" ],
            "name": "kjs",
            "buildsystem": "cmake-ninja",
            "sources": [ { "type": "git", "url": "git://anongit.kde.org/kjs.git", "branch": "v5.60.0" } ]
        },
        {
            "config-opts": [ "-DENABLE_TESTING=OFF" ],
            "name": "khtml",
            "buildsystem": "cmake-ninja",
            "sources": [ { "type": "git", "url": "git://anongit.kde.org/khtml.git", "branch": "v5.60.0" } ]
        },
        { "name": "kcontacts", "buildsystem": "cmake-ninja", "sources": [ { "type": "git", "url": "git://anongit.kde.org/kcontacts" } ] },
        { "name": "grantlee", "buildsystem": "cmake-ninja", "sources": [ { "type": "git", "url": "https://github.com/steveire/grantlee.git" } ] },
        { "name": "kpimtextedit", "buildsystem": "cmake-ninja", "sources": [ { "type": "git", "url": "git://anongit.kde.org/kpimtextedit" } ] },
        { "name": "kidentitymanagement", "buildsystem": "cmake-ninja", "sources": [ { "type": "git", "url": "git://anongit.kde.org/kidentitymanagement" } ] },
        { "name": "libkleo", "buildsystem": "cmake-ninja", "sources": [ { "type": "git", "url": "git://anongit.kde.org/libkleo" } ] },
        {
            "name": "kopete",
            "buildsystem": "cmake-ninja",
            "sources": [
                { "type": "git", "url": "git://anongit.kde.org/kopete.git" }
            ]
        }
    ]
}
