{
    "id": "org.kde.kdeconnect",
    "branch": "master",
    "runtime": "org.kde.Platform",
    "runtime-version": "5.12",
    "sdk": "org.kde.Sdk",
    "command": "kdeconnect-indicator",
    "tags": ["nightly"],
    "desktop-file-name-suffix": " (Nightly)",
    "finish-args": ["--share=ipc", "--socket=x11", "--socket=wayland", "--share=network", "--own-name=org.kde.kdeconnectd", "--own-name=org.kde.kdeconnect-indicator",
                    "--talk-name=org.mpris.MediaPlayer2", "--talk-name=org.mpris.MediaPlayer2.Player" ],
    "rename-desktop-file": "org.kde.kdeconnect.nonplasma.desktop",

    "modules": [
        {
            "name": "libfakekey",
            "buildsystem": "simple",
            "build-commands": [
                "./configure --prefix=/app --sysconfdir=/etc --localstatedir=/var --disable-static",
                "make AM_LDFLAGS=-lX11",
                "make install"
            ],
            "sources": [
                {
                    "type": "archive",
                    "url": "http://downloads.yoctoproject.org/releases/matchbox/libfakekey/0.1/libfakekey-0.1.tar.bz2",
                    "sha256": "c41042a70524895b0edf8077ae3ae1206f1a313bea5811dcc23033ea16a00194"
                }
            ]
        },
        {
            "config-opts": [ "-DENABLE_TESTING=OFF" ],
            "name": "qca",
            "buildsystem": "cmake-ninja",
            "sources": [ { "type": "git", "url": "git://anongit.kde.org/qca.git" } ]
        },
        {
            "config-opts": [ "-DENABLE_TESTING=OFF" ],
            "name": "pulseaudio-qt",
            "buildsystem": "cmake-ninja",
            "sources": [ { "type": "git", "url": "git://anongit.kde.org/pulseaudio-qt.git" } ]
        },
        {
            "config-opts": [ "-DENABLE_TESTING=OFF" ],
            "name": "kpeople",
            "buildsystem": "cmake-ninja",
            "sources": [ { "type": "git", "url": "git://anongit.kde.org/kpeople.git", "tag": "v5.64.0" } ]
        },
        {
            "name": "kdeconnect",
            "buildsystem": "cmake-ninja",
            "sources": [ { "type": "git", "url": "git://anongit.kde.org/kdeconnect-kde.git" } ]
        }
    ]
}
